{"name": "Bellevue", "region": "Washington", "distance": 6.13}
{"name": "Renton", "region": "Washington", "distance": 10.07}
{"name": "Kitsap County", "region": "Washington", "distance": 14.94}
{"name": "Kent", "region": "Washington", "distance": 16.21}
{"name": "King County", "region": "Washington", "distance": 24.48}
{"name": "Tacoma", "region": "Washington", "distance": 24.97}
{"name": "Everett", "region": "Washington", "distance": 26.45}
{"name": "Pierce County", "region": "Washington", "distance": 40.33}
{"name": "Snohomish County", "region": "Washington", "distance": 41.52}
{"name": "Thurston County", "region": "Washington", "distance": 52.3}
